EESchema Schematic File Version 2  date Thu Dec 19 07:22:43 2013
LIBS:VincentDavoust
LIBS:power
LIBS:device
LIBS:transistors
LIBS:conn
LIBS:linear
LIBS:regul
LIBS:74xx
LIBS:cmos4000
LIBS:adc-dac
LIBS:memory
LIBS:xilinx
LIBS:special
LIBS:microcontrollers
LIBS:dsp
LIBS:microchip
LIBS:analog_switches
LIBS:motorola
LIBS:texas
LIBS:intel
LIBS:audio
LIBS:interface
LIBS:digital-audio
LIBS:philips
LIBS:display
LIBS:cypress
LIBS:siliconi
LIBS:opto
LIBS:atmel
LIBS:contrib
LIBS:valves
LIBS:devboard-cache
EELAYER 27 0
EELAYER END
$Descr A4 11693 8268
encoding utf-8
Sheet 1 1
Title ""
Date "19 dec 2013"
Rev ""
Comp ""
Comment1 ""
Comment2 ""
Comment3 ""
Comment4 ""
$EndDescr
$Comp
L ATTINY4313-P IC1
U 1 1 52B0ACC1
P 5550 2900
F 0 "IC1" H 4400 3900 40  0000 C CNN
F 1 "ATTINY4313-P" H 6500 2000 40  0000 C CNN
F 2 "DIP20" H 5550 2900 35  0000 C CIN
F 3 "~" H 5550 2900 60  0000 C CNN
	1    5550 2900
	1    0    0    -1  
$EndComp
$Comp
L GND #PWR01
U 1 1 52B0ACD0
P 5550 3900
F 0 "#PWR01" H 5550 3900 30  0001 C CNN
F 1 "GND" H 5550 3830 30  0001 C CNN
F 2 "" H 5550 3900 60  0000 C CNN
F 3 "" H 5550 3900 60  0000 C CNN
	1    5550 3900
	1    0    0    -1  
$EndComp
$Comp
L VCC #PWR02
U 1 1 52B0ACDF
P 5550 1800
F 0 "#PWR02" H 5550 1900 30  0001 C CNN
F 1 "VCC" H 5550 1900 30  0000 C CNN
F 2 "" H 5550 1800 60  0000 C CNN
F 3 "" H 5550 1800 60  0000 C CNN
	1    5550 1800
	1    0    0    -1  
$EndComp
$Comp
L CONN_2 P1
U 1 1 52B0ACEE
P 1300 1150
F 0 "P1" V 1250 1150 40  0000 C CNN
F 1 "CONN_2" V 1350 1150 40  0000 C CNN
F 2 "~" H 1300 1150 60  0000 C CNN
F 3 "~" H 1300 1150 60  0000 C CNN
	1    1300 1150
	-1   0    0    1   
$EndComp
$Comp
L C C1
U 1 1 52B0ACFF
P 2250 1250
F 0 "C1" H 2250 1350 40  0000 L CNN
F 1 "C" H 2256 1165 40  0000 L CNN
F 2 "~" H 2288 1100 30  0000 C CNN
F 3 "~" H 2250 1250 60  0000 C CNN
	1    2250 1250
	1    0    0    -1  
$EndComp
$Comp
L C C2
U 1 1 52B0AD0C
P 3350 1250
F 0 "C2" H 3350 1350 40  0000 L CNN
F 1 "C" H 3356 1165 40  0000 L CNN
F 2 "~" H 3388 1100 30  0000 C CNN
F 3 "~" H 3350 1250 60  0000 C CNN
	1    3350 1250
	1    0    0    -1  
$EndComp
$Comp
L 7805 U1
U 1 1 52B0AD23
P 2800 1100
F 0 "U1" H 2950 904 60  0000 C CNN
F 1 "7805" H 2800 1300 60  0000 C CNN
F 2 "~" H 2800 1100 60  0000 C CNN
F 3 "~" H 2800 1100 60  0000 C CNN
	1    2800 1100
	1    0    0    -1  
$EndComp
$Comp
L GND #PWR03
U 1 1 52B0AD5D
P 2800 1500
F 0 "#PWR03" H 2800 1500 30  0001 C CNN
F 1 "GND" H 2800 1430 30  0001 C CNN
F 2 "" H 2800 1500 60  0000 C CNN
F 3 "" H 2800 1500 60  0000 C CNN
	1    2800 1500
	1    0    0    -1  
$EndComp
$Comp
L VCC #PWR04
U 1 1 52B0AD6C
P 3650 1050
F 0 "#PWR04" H 3650 1150 30  0001 C CNN
F 1 "VCC" H 3650 1150 30  0000 C CNN
F 2 "" H 3650 1050 60  0000 C CNN
F 3 "" H 3650 1050 60  0000 C CNN
	1    3650 1050
	1    0    0    -1  
$EndComp
Wire Wire Line
	1650 1050 2400 1050
Connection ~ 2250 1050
Wire Wire Line
	3200 1050 3650 1050
Wire Wire Line
	1650 1450 3350 1450
Wire Wire Line
	2800 1350 2800 1500
Connection ~ 2800 1450
Wire Wire Line
	1650 1450 1650 1250
Connection ~ 2250 1450
Connection ~ 3350 1050
Text GLabel 8500 1975 0    60   BiDi ~ 0
MISO
Text GLabel 9300 2075 2    60   BiDi ~ 0
MOSI
$Comp
L CONN_3X2 P2
U 1 1 52B0AE33
P 8900 2125
F 0 "P2" H 8900 2375 50  0000 C CNN
F 1 "CONN_3X2" V 8900 2175 40  0000 C CNN
F 2 "~" H 8900 2125 60  0000 C CNN
F 3 "~" H 8900 2125 60  0000 C CNN
	1    8900 2125
	1    0    0    -1  
$EndComp
Text GLabel 8500 2075 0    60   BiDi ~ 0
SCK
Text GLabel 8500 2175 0    60   BiDi ~ 0
RST
$Comp
L VCC #PWR05
U 1 1 52B0AE4E
P 9300 1975
F 0 "#PWR05" H 9300 2075 30  0001 C CNN
F 1 "VCC" H 9292 2084 30  0000 C CNN
F 2 "" H 9300 1975 60  0000 C CNN
F 3 "" H 9300 1975 60  0000 C CNN
	1    9300 1975
	1    0    0    -1  
$EndComp
$Comp
L GND #PWR06
U 1 1 52B0AE5D
P 9300 2175
F 0 "#PWR06" H 9300 2175 30  0001 C CNN
F 1 "GND" H 9300 2105 30  0001 C CNN
F 2 "" H 9300 2175 60  0000 C CNN
F 3 "" H 9300 2175 60  0000 C CNN
	1    9300 2175
	1    0    0    -1  
$EndComp
$Comp
L R R1
U 1 1 52B0AE6C
P 3800 1800
F 0 "R1" V 3880 1800 40  0000 C CNN
F 1 "1k" V 3807 1801 40  0000 C CNN
F 2 "~" V 3730 1800 30  0000 C CNN
F 3 "~" H 3800 1800 30  0000 C CNN
	1    3800 1800
	1    0    0    -1  
$EndComp
$Comp
L C C3
U 1 1 52B0AE79
P 3800 2300
F 0 "C3" H 3800 2400 40  0000 L CNN
F 1 "C" H 3806 2215 40  0000 L CNN
F 2 "~" H 3838 2150 30  0000 C CNN
F 3 "~" H 3800 2300 60  0000 C CNN
	1    3800 2300
	1    0    0    -1  
$EndComp
Wire Wire Line
	3650 2100 4200 2100
Wire Wire Line
	3800 2100 3800 2050
$Comp
L VCC #PWR07
U 1 1 52B0AEC9
P 3800 1550
F 0 "#PWR07" H 3800 1650 30  0001 C CNN
F 1 "VCC" H 3800 1650 30  0000 C CNN
F 2 "" H 3800 1550 60  0000 C CNN
F 3 "" H 3800 1550 60  0000 C CNN
	1    3800 1550
	1    0    0    -1  
$EndComp
$Comp
L GND #PWR08
U 1 1 52B0AED8
P 3800 2500
F 0 "#PWR08" H 3800 2500 30  0001 C CNN
F 1 "GND" H 3800 2430 30  0001 C CNN
F 2 "" H 3800 2500 60  0000 C CNN
F 3 "" H 3800 2500 60  0000 C CNN
	1    3800 2500
	1    0    0    -1  
$EndComp
Text GLabel 3650 2100 0    60   BiDi ~ 0
RST
Connection ~ 3800 2100
Text GLabel 6900 2800 2    60   BiDi ~ 0
SCK
Text GLabel 6900 2700 2    60   BiDi ~ 0
MISO
Text GLabel 6900 2600 2    60   BiDi ~ 0
MOSI
Wire Wire Line
	6900 2100 7075 2100
Wire Wire Line
	7075 2100 7075 2050
Wire Wire Line
	7075 2050 7475 2050
Wire Wire Line
	6900 2200 7125 2200
Wire Wire Line
	7125 2200 7125 2150
Wire Wire Line
	7125 2150 7475 2150
Wire Wire Line
	6900 2300 7125 2300
Wire Wire Line
	7125 2300 7125 2250
Wire Wire Line
	7125 2250 7475 2250
Wire Wire Line
	6900 2400 7275 2400
Wire Wire Line
	7275 2400 7275 2350
Wire Wire Line
	7275 2350 7475 2350
Wire Wire Line
	6900 2500 7275 2500
Wire Wire Line
	7275 2500 7275 2450
Wire Wire Line
	7275 2450 7475 2450
Text GLabel 7475 2550 0    60   BiDi ~ 0
MOSI
Text GLabel 7475 2650 0    60   BiDi ~ 0
MISO
Text GLabel 7475 2750 0    60   BiDi ~ 0
SCK
Wire Wire Line
	6900 3000 7425 3000
Wire Wire Line
	6900 3100 7425 3100
Wire Wire Line
	6900 3200 7425 3200
Wire Wire Line
	6900 3300 7425 3300
Wire Wire Line
	6900 3400 7425 3400
Wire Wire Line
	7425 3500 6900 3500
Wire Wire Line
	6900 3600 7425 3600
Wire Wire Line
	4200 2400 4025 2400
Wire Wire Line
	4025 2400 4025 2750
Wire Wire Line
	4200 2600 4200 2950
Wire Wire Line
	4200 2950 4025 2950
$Comp
L CONN_2 P5
U 1 1 52B0B1DB
P 3675 2850
F 0 "P5" V 3925 2950 40  0000 C CNN
F 1 "CONN_2" H 3725 2850 40  0000 C CNN
F 2 "~" H 3675 2850 60  0000 C CNN
F 3 "~" H 3675 2850 60  0000 C CNN
	1    3675 2850
	-1   0    0    1   
$EndComp
$Comp
L CONN_8 P4
U 1 1 52B0B369
P 7775 3250
F 0 "P4" V 7725 3250 60  0000 C CNN
F 1 "CONN_8" V 7825 3250 60  0000 C CNN
F 2 "~" H 7775 3250 60  0000 C CNN
F 3 "~" H 7775 3250 60  0000 C CNN
	1    7775 3250
	1    0    0    -1  
$EndComp
$Comp
L GND #PWR09
U 1 1 52B0B378
P 7425 2900
F 0 "#PWR09" H 7425 2900 30  0001 C CNN
F 1 "GND" H 7425 2830 30  0001 C CNN
F 2 "" H 7425 2900 60  0000 C CNN
F 3 "" H 7425 2900 60  0000 C CNN
	1    7425 2900
	1    0    0    -1  
$EndComp
$Comp
L CONN_9 P3
U 1 1 52B0B387
P 7825 2350
F 0 "P3" V 7775 2350 60  0000 C CNN
F 1 "CONN_9" V 7875 2350 60  0000 C CNN
F 2 "~" H 7825 2350 60  0000 C CNN
F 3 "~" H 7825 2350 60  0000 C CNN
	1    7825 2350
	1    0    0    -1  
$EndComp
$Comp
L GND #PWR010
U 1 1 52B0B396
P 7475 1950
F 0 "#PWR010" H 7475 1950 30  0001 C CNN
F 1 "GND" H 7475 1880 30  0001 C CNN
F 2 "" H 7475 1950 60  0000 C CNN
F 3 "" H 7475 1950 60  0000 C CNN
	1    7475 1950
	1    0    0    -1  
$EndComp
$Comp
L R R2
U 1 1 52B290F1
P 2150 2350
F 0 "R2" V 2230 2350 40  0000 C CNN
F 1 "300" V 2157 2351 40  0000 C CNN
F 2 "~" V 2080 2350 30  0000 C CNN
F 3 "~" H 2150 2350 30  0000 C CNN
	1    2150 2350
	1    0    0    -1  
$EndComp
$Comp
L LED D1
U 1 1 52B29100
P 2150 1900
F 0 "D1" H 2150 2000 50  0000 C CNN
F 1 "LED" H 2150 1800 50  0000 C CNN
F 2 "~" H 2150 1900 60  0000 C CNN
F 3 "~" H 2150 1900 60  0000 C CNN
	1    2150 1900
	0    1    1    0   
$EndComp
$Comp
L VCC #PWR?
U 1 1 52B2910D
P 2150 1700
F 0 "#PWR?" H 2150 1800 30  0001 C CNN
F 1 "VCC" H 2150 1800 30  0000 C CNN
F 2 "" H 2150 1700 60  0000 C CNN
F 3 "" H 2150 1700 60  0000 C CNN
	1    2150 1700
	1    0    0    -1  
$EndComp
$Comp
L GND #PWR?
U 1 1 52B29113
P 2150 2600
F 0 "#PWR?" H 2150 2600 30  0001 C CNN
F 1 "GND" H 2150 2530 30  0001 C CNN
F 2 "" H 2150 2600 60  0000 C CNN
F 3 "" H 2150 2600 60  0000 C CNN
	1    2150 2600
	1    0    0    -1  
$EndComp
$EndSCHEMATC
